[########inserting many reocords at one

curl -X POST -H "Content-Type: application/json" -d   '{
  "relationship":"none",
  "table": "total_products",
  "isManyInsert":true,
  "isManyRecords":true,
  "backup":true,
  "table_data":[[{"column":"proudct_factor","value":2},{"column":"proudct_number","value":1}], [{"column":"proudct_factor","value":4},{"column":"proudct_number","value":2}], [{"column":"proudct_number","value":5},{"column":"proudct_number","value":3}],[{"column":"proudct_factor","value":7,{"column":"proudct_number","value":5}}][{"column":"proudct_factor","value":9},{"column":"proudct_number","value":7}]]
}' http://cmc.api.ledger.bolithodeveloper.com/insert/]
[#######without relatioshipand insering many records

curl -X POST "http://cmc.api.ledger.bolithodeveloper.com/insert/" \
-H "Content-Type: application/json" \
-d '{
  "relationship": "none",
  "table":"students",
  "cascade": true,
  "backup": true,
  "isManyInsert": true,
  "isManyRecords": true,
  "table_data": [
    [
      {
        "column": "first_name",
        "value": "Neco",
        "constraint": "not null"
      },
      {
        "column": "last_name",
        "value": "Bolitho",
        "constraint": "not null"
      },
      {
        "column": "phone_number",
        "value": "+2560708059274",
        "constraint": "null"
      },
      {
        "column": "email",
        "value": "nicosjus@gmail.com",
        "constraint": "null"
      }
    ],
    [
      {
        "column": "first_name",
        "value": "John",
        "constraint": "not null"
      },
      {
        "column": "last_name",
        "value": "Doe",
        "constraint": "not null"
      },
      {
        "column": "phone_number",
        "value": null,
        "constraint": "null"
      },
      {
        "column": "email",
        "value": null,
        "constraint": "null"
      }
    ],
    [
      {
        "column": "first_name",
        "value": "Alice",
        "constraint": "not null"
      },
      {
        "column": "last_name",
        "value": "Smith",
        "constraint": "not null"
      },
      {
        "column": "phone_number",
        "value": "+11234567890",
        "constraint": "null"
      },
      {
        "column": "email",
        "value": null,
        "constraint": "null"
      }
    ],
    [
      {
        "column": "first_name",
        "value": "Bob",
        "constraint": "not null"
      },
      {
        "column": "last_name",
        "value": "Johnson",
        "constraint": "not null"
      },
      {
        "column": "phone_number",
        "value": null,
        "constraint": "null"
      },
      {
        "column": "email",
        "value": "bob@example.com",
        "constraint": "null"
      }
    ],
    [
      {
        "column": "first_name",
        "value": "Sarah",
        "constraint": "not null"
      },
      {
        "column": "last_name",
        "value": "Williams",
        "constraint": "not null"
      },
      {
        "column": "phone_number",
        "value": "+44123456789",
        "constraint": "null"
      },
      {
        "column": "email",
        "value": "sarahw@example.com",
        "constraint": "null"
      }
    ],
    [
      {
        "column": "first_name",
        "value": "Michael",
        "constraint": "not null"
      },
      {
        "column": "last_name",
        "value": "Brown",
        "constraint": "not null"
      },
      {
        "column": "phone_number",
        "value": "+19876543210",
        "constraint": "null"
      },
      {
        "column": "email",
        "value": "michael@example.com",
        "constraint": "null"
      }
    ],
    [
      {
        "column": "first_name",
        "value": "Emily",
        "constraint": "not null"
      },
      {
        "column": "last_name",
        "value": "Davis",
        "constraint": "not null"
      },
      {
        "column": "phone_number",
        "value": null,
        "constraint": "null"
      },
      {
        "column": "email",
        "value": null,
        "constraint": "null"
      }
    ],
    [
      {
        "column": "first_name",
        "value": "Alex",
        "constraint": "not null"
      },
      {
        "column": "last_name",
        "value": "Lee",
        "constraint": "not null"
      },
      {
        "column": "phone_number",
        "value": "+60123456789",
        "constraint": "null"
      },
      {
        "column": "email",
        "value": "alexlee@example.com",
        "constraint": "null"
      }
    ],
    [
      {
        "column": "first_name",
        "value": "Olivia",
        "constraint": "not null"
      },
      {
        "column": "last_name",
        "value": "Martinez",
        "constraint": "not null"
      },
      {
        "column": "phone_number",
        "value": null,
        "constraint": "null"
      },
      {
        "column": "email",
        "value": "olivia@example.com",
        "constraint": "null"
      }
    ],
    [
      {
        "column": "first_name",
        "value": "James",
        "constraint": "not null"
      },
      {
        "column": "last_name",
        "value": "Anderson",
        "constraint": "not null"
      },
      {
        "column": "phone_number",
        "value": "+44765432109",
        "constraint": "null"
      },
      {
        "column": "email",
        "value": "james@example.com",
        "constraint": "null"
      }
    ],
    [
      {
        "column": "first_name",
        "value": "Sophia",
        "constraint": "not null"
      },
      {
        "column": "last_name",
        "value": "Johnson",
        "constraint": "not null"
      },
      {
        "column": "phone_number",
        "value": null,
        "constraint": "null"
      },
      {
        "column": "email",
        "value": null,
        "constraint": "null"
      }
    ],
    [
      {
        "column": "first_name",
        "value": "Noah",
        "constraint": "not null"
      },
      {
        "column": "last_name",
        "value": "Thompson",
        "constraint": "not null"
      },
      {
        "column": "phone_number",
        "value": "+61876543210",
        "constraint": "null"
      },
      {
        "column": "email",
        "value": "noah@example.com",
        "constraint": "null"
      }
    ],
    [
      {
        "column": "first_name",
        "value": "Ava",
        "constraint": "not null"
      },
      {
        "column": "last_name",
        "value": "Hernandez",
        "constraint": "not null"
      },
      {
        "column": "phone_number",
        "value": null,
        "constraint": "null"
      },
      {
        "column": "email",
        "value": null,
        "constraint": "null"
      }
    ],
    [
      {
        "column": "first_name",
        "value": "William",
        "constraint": "not null"
      },
      {
        "column": "last_name",
        "value": "Garcia",
        "constraint": "not null"
      },
      {
        "column": "phone_number",
        "value": "+19876543210",
        "constraint": "null"
      },
      {
        "column": "email",
        "value": "william@example.com",
        "constraint": "null"
      }
    ],
    [
      {
        "column": "first_name",
        "value": "Isabella",
        "constraint": "not null"
      },
      {
        "column": "last_name",
        "value": "Kumar",
        "constraint": "not null"
      },
      {
        "column": "phone_number",
        "value": "+919876543210",
        "constraint": "null"
      },
      {
        "column": "email",
        "value": "isabella@example.com",
        "constraint": "null"
      }
    ],
    [
      {
        "column": "first_name",
        "value": "Benjamin",
        "constraint": "not null"
      },
      {
        "column": "last_name",
        "value": "Nguyen",
        "constraint": "not null"
      },
      {
        "column": "phone_number",
        "value": null,
        "constraint": "null"
      },
      {
        "column": "email",
        "value": null,
        "constraint": "null"
      }
    ],
    [
      {
        "column": "first_name",
        "value": "Charlotte",
        "constraint": "not null"
      },
      {
        "column": "last_name",
        "value": "Rodriguez",
        "constraint": "not null"
      },
      {
        "column": "phone_number",
        "value": "+19876543210",
        "constraint": "null"
      },
      {
        "column": "email",
        "value": "charlotte@example.com",
        "constraint": "null"
      }
    ],
    [
      {
        "column": "first_name",
        "value": "Mason",
        "constraint": "not null"
      },
      {
        "column": "last_name",
        "value": "Gupta",
        "constraint": "not null"
      },
      {
        "column": "phone_number",
        "value": "+44123456789",
        "constraint": "null"
      },
      {
        "column": "email",
        "value": "mason@example.com",
        "constraint": "null"
      }
    ],
    [
      {
        "column": "first_name",
        "value": "Amelia",
        "constraint": "not null"
      },
      {
        "column": "last_name",
        "value": "Lee",
        "constraint": "not null"
      },
      {
        "column": "phone_number",
        "value": null,
        "constraint": "null"
      },
      {
        "column": "email",
        "value": null,
        "constraint": "null"
      }
    ],
    [
      {
        "column": "first_name",
        "value": "Elijah",
        "constraint": "not null"
      },
      {
        "column": "last_name",
        "value": "Gonzalez",
        "constraint": "not null"
      },
      {
        "column": "phone_number",
        "value": "+60123456789",
        "constraint": "null"
      },
      {
        "column": "email",
        "value": "elijah@example.com",
        "constraint": "null"
      }
    ]
  ]
}'
 ]
