{###updating a single records
  "table":"workers",
  "conditions":[{"column":"workers_id", "operator", "value":1}],
  "meta_data":[{"column":"first_name", "value":"nicholas"}]
}
{#####updaing muliple updating muitple reocords


  {
   "table": "workers",
   "multiRowMultiValueUpdate": true,
   "meta_data": {
     "conditions": [
       [{"column": "workers_id", "operator": "eq", "value": 2}],
       [{"column": "workers_id", "operator": "eq", "value": 3}]
     ],
     "data": [
       [{"column": "first_name", "value": "love"}],
       [{"column": "first_name", "value": "joyfull"}]
     ]
   }
 }


{
"table":"location",
 "multiRowMultiValueUpdate": true,
 "isUpdateMany":true,
"meta_data": {
  "conditions": [
    [{"column": "workers_id", "operator": "eq", "value": 2}],
    [{"column": "workers_id", "operator": "eq", "value": 3}]
  ],
  "data": [
    [{"column": "country", "value": "uganda"}],
    [{"column": "country", "value": "Kenya"}]
  ]
}


}

}
curl -X PUT -H "Content-Type: application/json" -d '{
  "table": "students",
  "isUpdateMany": true,
   "multiRowMultiValueUpdate": true,
  "meta_data": {
    "conditions": [
      [{"column": "students_id", "operator": "eq", "value": 2}]
    ],
    "data": [
      [{"column": "courses_id", "value": 4}]
    ]
  }
}' http://cmc.api.ledger.bolithodeveloper.com/update/
